{
    "name": "Malbers Input HAP",
    "maps": [
        {
            "name": "Gameplay",
            "id": "265c38f5-dd18-4d34-b198-aec58e1627ff",
            "actions": [
                {
                    "name": "Move",
                    "type": "Value",
                    "id": "50fd2809-3aa3-4a90-988e-1facf6773553",
                    "expectedControlType": "Vector2",
                    "processors": "",
                    "interactions": ""
                },
                {
                    "name": "UpDown",
                    "type": "Value",
                    "id": "3b7311d8-021d-4664-897c-dd0a4acae771",
                    "expectedControlType": "Axis",
                    "processors": "",
                    "interactions": ""
                },
                {
                    "name": "Look",
                    "type": "Value",
                    "id": "c60e0974-d140-4597-a40e-9862193067e9",
                    "expectedControlType": "Vector2",
                    "processors": "ScaleVector2(x=0.5,y=0.5)",
                    "interactions": ""
                },
                {
                    "name": "Jump",
                    "type": "Button",
                    "id": "1077f913-a9f9-41b1-acb3-b9ee0adbc744",
                    "expectedControlType": "Button",
                    "processors": "",
                    "interactions": ""
                },
                {
                    "name": "Sprint",
                    "type": "Button",
                    "id": "e7772c51-01e1-4bfa-a469-2d8a9687f623",
                    "expectedControlType": "Button",
                    "processors": "",
                    "interactions": ""
                },
                {
                    "name": "Interact",
                    "type": "Button",
                    "id": "b5ebc87a-77ed-476b-bb45-e85027878b45",
                    "expectedControlType": "Button",
                    "processors": "",
                    "interactions": ""
                },
                {
                    "name": "Mount",
                    "type": "Button",
                    "id": "53269086-6363-4e07-bae1-37dff57da239",
                    "expectedControlType": "Button",
                    "processors": "",
                    "interactions": ""
                },
                {
                    "name": "Attack1",
                    "type": "Button",
                    "id": "136ab1ec-63d3-4ec9-99e1-347c2d45e497",
                    "expectedControlType": "Button",
                    "processors": "",
                    "interactions": ""
                },
                {
                    "name": "Attack2",
                    "type": "Button",
                    "id": "692160c1-e814-4727-b954-09679bcc60ec",
                    "expectedControlType": "Button",
                    "processors": "",
                    "interactions": ""
                },
                {
                    "name": "Crouch",
                    "type": "Button",
                    "id": "9683d141-940d-4b9e-aaff-3848eead2ded",
                    "expectedControlType": "Button",
                    "processors": "",
                    "interactions": ""
                },
                {
                    "name": "Dodge",
                    "type": "Button",
                    "id": "8fd92621-9b06-4702-a5d4-f2b1d911906e",
                    "expectedControlType": "Button",
                    "processors": "",
                    "interactions": ""
                },
                {
                    "name": "Strafe",
                    "type": "Button",
                    "id": "eaf15bad-8b50-44c2-8df4-2b5bee227a5c",
                    "expectedControlType": "Button",
                    "processors": "",
                    "interactions": ""
                },
                {
                    "name": "SpeedUp",
                    "type": "Button",
                    "id": "46b05b23-8b4f-4ba4-9fac-1d3ff99adb0e",
                    "expectedControlType": "Button",
                    "processors": "",
                    "interactions": ""
                },
                {
                    "name": "SpeedDown",
                    "type": "Button",
                    "id": "86f8d059-aa47-4687-ab4a-62f9ef397290",
                    "expectedControlType": "Button",
                    "processors": "",
                    "interactions": ""
                },
                {
                    "name": "Pause",
                    "type": "Button",
                    "id": "6244485f-557f-4b25-a009-fba12566fc26",
                    "expectedControlType": "Button",
                    "processors": "",
                    "interactions": ""
                }
            ],
            "bindings": [
                {
                    "name": "",
                    "id": "c106d6e6-2780-47ff-b318-396171bd54cc",
                    "path": "<Gamepad>/rightStick",
                    "interactions": "",
                    "processors": "",
                    "groups": "GamePad",
                    "action": "Look",
                    "isComposite": false,
                    "isPartOfComposite": false
                },
                {
                    "name": "",
                    "id": "578caa03-6827-4797-adfc-a59770c437fe",
                    "path": "<Pointer>/delta",
                    "interactions": "",
                    "processors": "",
                    "groups": "Keyboard and Mouse",
                    "action": "Look",
                    "isComposite": false,
                    "isPartOfComposite": false
                },
                {
                    "name": "",
                    "id": "abb776f3-f329-4f7b-bbf8-b577d13be018",
                    "path": "<Keyboard>/space",
                    "interactions": "",
                    "processors": "",
                    "groups": "Keyboard and Mouse",
                    "action": "Jump",
                    "isComposite": false,
                    "isPartOfComposite": false
                },
                {
                    "name": "",
                    "id": "f601e2de-9574-42ed-86ab-39f32d5d7bde",
                    "path": "<Gamepad>/buttonEast",
                    "interactions": "",
                    "processors": "",
                    "groups": "GamePad",
                    "action": "Jump",
                    "isComposite": false,
                    "isPartOfComposite": false
                },
                {
                    "name": "",
                    "id": "a73f5288-cc64-4972-ae2f-5ba56c2f5ec1",
                    "path": "<Gamepad>/leftStickPress",
                    "interactions": "",
                    "processors": "",
                    "groups": "GamePad",
                    "action": "Sprint",
                    "isComposite": false,
                    "isPartOfComposite": false
                },
                {
                    "name": "",
                    "id": "4857c354-9769-47df-946e-cba2a302c05a",
                    "path": "<Keyboard>/shift",
                    "interactions": "",
                    "processors": "",
                    "groups": "Keyboard and Mouse",
                    "action": "Sprint",
                    "isComposite": false,
                    "isPartOfComposite": false
                },
                {
                    "name": "",
                    "id": "662fe888-f141-4960-8b45-0b3512e7d85a",
                    "path": "<Gamepad>/buttonNorth",
                    "interactions": "",
                    "processors": "",
                    "groups": "GamePad",
                    "action": "Interact",
                    "isComposite": false,
                    "isPartOfComposite": false
                },
                {
                    "name": "",
                    "id": "19aaf853-57e1-4fb0-b87b-542735bcc46f",
                    "path": "<Keyboard>/e",
                    "interactions": "",
                    "processors": "",
                    "groups": "Keyboard and Mouse",
                    "action": "Interact",
                    "isComposite": false,
                    "isPartOfComposite": false
                },
                {
                    "name": "",
                    "id": "fbb2b4e8-ecaf-44c9-a670-75e7691f276f",
                    "path": "<Gamepad>/rightTrigger",
                    "interactions": "",
                    "processors": "",
                    "groups": "GamePad",
                    "action": "Attack1",
                    "isComposite": false,
                    "isPartOfComposite": false
                },
                {
                    "name": "",
                    "id": "5be9e702-4109-4e69-bfc8-35c1626289bf",
                    "path": "<Mouse>/leftButton",
                    "interactions": "",
                    "processors": "",
                    "groups": "Keyboard and Mouse",
                    "action": "Attack1",
                    "isComposite": false,
                    "isPartOfComposite": false
                },
                {
                    "name": "UD Keyboard",
                    "id": "1802c09c-bd66-4eae-b4ed-bf75275d92c9",
                    "path": "1DAxis(whichSideWins=1)",
                    "interactions": "",
                    "processors": "",
                    "groups": "",
                    "action": "UpDown",
                    "isComposite": true,
                    "isPartOfComposite": false
                },
                {
                    "name": "positive",
                    "id": "9ec8d0dc-76a7-4edb-97c6-5f0640741ba4",
                    "path": "<Keyboard>/space",
                    "interactions": "",
                    "processors": "",
                    "groups": "Keyboard and Mouse",
                    "action": "UpDown",
                    "isComposite": false,
                    "isPartOfComposite": true
                },
                {
                    "name": "negative",
                    "id": "4ae82b17-e041-4556-b7c6-c56dae7247a3",
                    "path": "<Keyboard>/c",
                    "interactions": "",
                    "processors": "",
                    "groups": "Keyboard and Mouse",
                    "action": "UpDown",
                    "isComposite": false,
                    "isPartOfComposite": true
                },
                {
                    "name": "UD GamePad",
                    "id": "166b9e1e-01b4-44a0-b900-66ee2e2c7fb9",
                    "path": "1DAxis",
                    "interactions": "",
                    "processors": "",
                    "groups": "",
                    "action": "UpDown",
                    "isComposite": true,
                    "isPartOfComposite": false
                },
                {
                    "name": "positive",
                    "id": "04b883b9-f05d-4eb9-96d5-0be18e50758e",
                    "path": "<Gamepad>/leftShoulder",
                    "interactions": "",
                    "processors": "",
                    "groups": "GamePad",
                    "action": "UpDown",
                    "isComposite": false,
                    "isPartOfComposite": true
                },
                {
                    "name": "negative",
                    "id": "f9b1fdc1-1d75-400e-982d-0a2dfec978c0",
                    "path": "<Gamepad>/rightShoulder",
                    "interactions": "",
                    "processors": "",
                    "groups": "GamePad",
                    "action": "UpDown",
                    "isComposite": false,
                    "isPartOfComposite": true
                },
                {
                    "name": "",
                    "id": "e1b8c4dd-7b3a-4db6-a93a-0889b59b1afc",
                    "path": "<Gamepad>/leftStick",
                    "interactions": "",
                    "processors": "",
                    "groups": "GamePad",
                    "action": "Move",
                    "isComposite": false,
                    "isPartOfComposite": false
                },
                {
                    "name": "WASD",
                    "id": "a8dda377-fd63-48e8-9d46-4d4f741bb863",
                    "path": "2DVector(mode=1)",
                    "interactions": "",
                    "processors": "",
                    "groups": "",
                    "action": "Move",
                    "isComposite": true,
                    "isPartOfComposite": false
                },
                {
                    "name": "up",
                    "id": "aa5158d0-2e5c-432a-a65a-b0ffb8759fac",
                    "path": "<Keyboard>/w",
                    "interactions": "",
                    "processors": "",
                    "groups": "Keyboard and Mouse",
                    "action": "Move",
                    "isComposite": false,
                    "isPartOfComposite": true
                },
                {
                    "name": "down",
                    "id": "885a8003-67ea-4263-ae73-e039c46955bf",
                    "path": "<Keyboard>/s",
                    "interactions": "",
                    "processors": "",
                    "groups": "Keyboard and Mouse",
                    "action": "Move",
                    "isComposite": false,
                    "isPartOfComposite": true
                },
                {
                    "name": "left",
                    "id": "777e0578-834c-4333-bed1-a4f8750c9f0d",
                    "path": "<Keyboard>/a",
                    "interactions": "",
                    "processors": "",
                    "groups": "Keyboard and Mouse",
                    "action": "Move",
                    "isComposite": false,
                    "isPartOfComposite": true
                },
                {
                    "name": "right",
                    "id": "feff4027-5172-4de0-ada7-998a9c2bf4a0",
                    "path": "<Keyboard>/d",
                    "interactions": "",
                    "processors": "",
                    "groups": "Keyboard and Mouse",
                    "action": "Move",
                    "isComposite": false,
                    "isPartOfComposite": true
                },
                {
                    "name": "",
                    "id": "8c98e675-55c7-419b-841c-c2d8bca9877f",
                    "path": "<Keyboard>/c",
                    "interactions": "",
                    "processors": "",
                    "groups": "Keyboard and Mouse",
                    "action": "Crouch",
                    "isComposite": false,
                    "isPartOfComposite": false
                },
                {
                    "name": "",
                    "id": "4248d849-1e57-4ee7-a536-f44b12524738",
                    "path": "<Gamepad>/buttonSouth",
                    "interactions": "",
                    "processors": "",
                    "groups": "",
                    "action": "Crouch",
                    "isComposite": false,
                    "isPartOfComposite": false
                },
                {
                    "name": "",
                    "id": "29d07177-00f9-4171-a9d8-2fe9983bbdae",
                    "path": "<Keyboard>/ctrl",
                    "interactions": "",
                    "processors": "",
                    "groups": "Keyboard and Mouse",
                    "action": "Dodge",
                    "isComposite": false,
                    "isPartOfComposite": false
                },
                {
                    "name": "",
                    "id": "d56bdcf3-ebda-4ae1-96e3-7dfacbb4ca13",
                    "path": "<Gamepad>/buttonWest",
                    "interactions": "",
                    "processors": "",
                    "groups": "GamePad",
                    "action": "Dodge",
                    "isComposite": false,
                    "isPartOfComposite": false
                },
                {
                    "name": "",
                    "id": "d597324e-c052-4c34-82a0-8d9263974988",
                    "path": "<Gamepad>/buttonNorth",
                    "interactions": "",
                    "processors": "",
                    "groups": "GamePad",
                    "action": "Mount",
                    "isComposite": false,
                    "isPartOfComposite": false
                },
                {
                    "name": "",
                    "id": "be8318cb-e172-4c8a-add6-f05842976990",
                    "path": "<Keyboard>/f",
                    "interactions": "",
                    "processors": "",
                    "groups": "Keyboard and Mouse",
                    "action": "Mount",
                    "isComposite": false,
                    "isPartOfComposite": false
                },
                {
                    "name": "",
                    "id": "9544b651-21bc-4aab-9d73-c06ddf831d0d",
                    "path": "<Gamepad>/leftTrigger",
                    "interactions": "",
                    "processors": "",
                    "groups": "GamePad",
                    "action": "Attack2",
                    "isComposite": false,
                    "isPartOfComposite": false
                },
                {
                    "name": "",
                    "id": "6a01154f-5c63-4644-a157-4f78bfe7416a",
                    "path": "<Mouse>/rightButton",
                    "interactions": "",
                    "processors": "",
                    "groups": "Keyboard and Mouse",
                    "action": "Attack2",
                    "isComposite": false,
                    "isPartOfComposite": false
                },
                {
                    "name": "",
                    "id": "529d1bd1-be85-47dc-9ca3-1a297854ce60",
                    "path": "<Keyboard>/tab",
                    "interactions": "",
                    "processors": "",
                    "groups": "Keyboard and Mouse",
                    "action": "Strafe",
                    "isComposite": false,
                    "isPartOfComposite": false
                },
                {
                    "name": "",
                    "id": "bc44eaa6-d3ea-44c7-b538-84e1e76e2cc7",
                    "path": "<Gamepad>/rightStickPress",
                    "interactions": "",
                    "processors": "",
                    "groups": "GamePad",
                    "action": "Strafe",
                    "isComposite": false,
                    "isPartOfComposite": false
                },
                {
                    "name": "",
                    "id": "eddadf6c-b35f-4e91-830a-88cad9ece09a",
                    "path": "<Keyboard>/2",
                    "interactions": "",
                    "processors": "",
                    "groups": "Keyboard and Mouse",
                    "action": "SpeedUp",
                    "isComposite": false,
                    "isPartOfComposite": false
                },
                {
                    "name": "",
                    "id": "479b5b6d-a007-4c12-b533-fc126bae5849",
                    "path": "<Gamepad>/rightShoulder",
                    "interactions": "",
                    "processors": "",
                    "groups": "GamePad",
                    "action": "SpeedUp",
                    "isComposite": false,
                    "isPartOfComposite": false
                },
                {
                    "name": "",
                    "id": "7278bf17-45c9-4ea7-964d-12a18d8af61e",
                    "path": "<Keyboard>/1",
                    "interactions": "",
                    "processors": "",
                    "groups": "Keyboard and Mouse",
                    "action": "SpeedDown",
                    "isComposite": false,
                    "isPartOfComposite": false
                },
                {
                    "name": "",
                    "id": "c9db7513-4479-47dc-843e-afbd6b3439db",
                    "path": "<Gamepad>/leftShoulder",
                    "interactions": "",
                    "processors": "",
                    "groups": "GamePad",
                    "action": "SpeedDown",
                    "isComposite": false,
                    "isPartOfComposite": false
                },
                {
                    "name": "",
                    "id": "ee10d6fa-c492-4daf-b672-b27f42e34270",
                    "path": "<Keyboard>/escape",
                    "interactions": "MultiTap(tapTime=0.2,tapDelay=0.4,tapCount=3,pressPoint=0.5)",
                    "processors": "",
                    "groups": "Keyboard and Mouse",
                    "action": "Pause",
                    "isComposite": false,
                    "isPartOfComposite": false
                },
                {
                    "name": "",
                    "id": "5a75e8eb-b5bc-4e74-92ee-b3aea4edea5d",
                    "path": "<Gamepad>/start",
                    "interactions": "",
                    "processors": "",
                    "groups": "GamePad",
                    "action": "Pause",
                    "isComposite": false,
                    "isPartOfComposite": false
                }
            ]
        },
        {
            "name": "Riding",
            "id": "4a640915-8750-49ec-a2a2-55e80f62bb79",
            "actions": [
                {
                    "name": "Mount Move",
                    "type": "Value",
                    "id": "430be1cb-83c2-416b-a185-22653d66aad2",
                    "expectedControlType": "Vector2",
                    "processors": "",
                    "interactions": ""
                },
                {
                    "name": "SpeedDown",
                    "type": "Button",
                    "id": "d738a735-eb24-4e9e-bdb2-3fdb8f1f436a",
                    "expectedControlType": "Button",
                    "processors": "",
                    "interactions": ""
                },
                {
                    "name": "SpeedUp",
                    "type": "Button",
                    "id": "aae63b85-2f12-45b8-b495-6131a9197396",
                    "expectedControlType": "Button",
                    "processors": "",
                    "interactions": ""
                },
                {
                    "name": "Mount UpDown",
                    "type": "Value",
                    "id": "7e9348d8-f965-4333-866c-a2614b0a73fa",
                    "expectedControlType": "Axis",
                    "processors": "",
                    "interactions": ""
                },
                {
                    "name": "Mount Jump",
                    "type": "Button",
                    "id": "56ef41d6-9527-4e78-be5c-6f791b19949c",
                    "expectedControlType": "Button",
                    "processors": "",
                    "interactions": ""
                },
                {
                    "name": "Mount Interact",
                    "type": "Button",
                    "id": "aa2c63a9-b17a-48e9-905b-31ffc72cbd16",
                    "expectedControlType": "Button",
                    "processors": "",
                    "interactions": ""
                },
                {
                    "name": "Mount Sprint",
                    "type": "Button",
                    "id": "237ebdfe-4f05-444e-a66a-8a28f9275b5b",
                    "expectedControlType": "Button",
                    "processors": "",
                    "interactions": ""
                },
                {
                    "name": "Mount Strafe",
                    "type": "Button",
                    "id": "fbe232e5-b90c-4ae3-8dcd-05e63bf559ac",
                    "expectedControlType": "Button",
                    "processors": "",
                    "interactions": ""
                },
                {
                    "name": "Look",
                    "type": "Value",
                    "id": "24fe4fa1-c780-49e4-b6b3-e2efb9b20558",
                    "expectedControlType": "Vector2",
                    "processors": "ScaleVector2(x=0.5,y=0.5)",
                    "interactions": ""
                },
                {
                    "name": "Aim",
                    "type": "Button",
                    "id": "1770a5a9-d808-4b6b-821d-f1651948ba29",
                    "expectedControlType": "Button",
                    "processors": "",
                    "interactions": ""
                },
                {
                    "name": "Attack1",
                    "type": "Button",
                    "id": "7d087d78-aea7-43ef-9b01-08afda4eb9a6",
                    "expectedControlType": "Button",
                    "processors": "",
                    "interactions": ""
                },
                {
                    "name": "Dismount",
                    "type": "Button",
                    "id": "4b825301-f301-4cfe-ae3b-dc76f598583d",
                    "expectedControlType": "Button",
                    "processors": "",
                    "interactions": ""
                },
                {
                    "name": "Inventory 1",
                    "type": "Button",
                    "id": "689254aa-cad9-48ed-9863-4f03823a6608",
                    "expectedControlType": "Button",
                    "processors": "",
                    "interactions": ""
                },
                {
                    "name": "Inventory 2",
                    "type": "Button",
                    "id": "17252af2-b874-44cc-aaf6-5fff66045bf9",
                    "expectedControlType": "Button",
                    "processors": "",
                    "interactions": ""
                },
                {
                    "name": "Inventory 3",
                    "type": "Button",
                    "id": "f919ac07-452b-4b71-84a3-44987202fc7d",
                    "expectedControlType": "Button",
                    "processors": "",
                    "interactions": ""
                },
                {
                    "name": "Inventory 4",
                    "type": "Button",
                    "id": "63fc3edb-647b-49ff-b483-06d38aa9da42",
                    "expectedControlType": "Button",
                    "processors": "",
                    "interactions": ""
                },
                {
                    "name": "Reload",
                    "type": "Button",
                    "id": "caf06514-58e9-4b71-a96c-9fdc40c96b07",
                    "expectedControlType": "Button",
                    "processors": "",
                    "interactions": ""
                },
                {
                    "name": "Pause",
                    "type": "Button",
                    "id": "8fedac01-6e8f-4dc1-b1d8-89d4ac2328dc",
                    "expectedControlType": "Button",
                    "processors": "",
                    "interactions": ""
                }
            ],
            "bindings": [
                {
                    "name": "",
                    "id": "61ef0c8e-bc4d-456b-b84e-d960be667a43",
                    "path": "<Keyboard>/f",
                    "interactions": "",
                    "processors": "",
                    "groups": "Keyboard and Mouse",
                    "action": "Dismount",
                    "isComposite": false,
                    "isPartOfComposite": false
                },
                {
                    "name": "",
                    "id": "589ff0f8-a193-44c0-a40e-05bf64316e78",
                    "path": "<Gamepad>/buttonNorth",
                    "interactions": "",
                    "processors": "",
                    "groups": "GamePad",
                    "action": "Dismount",
                    "isComposite": false,
                    "isPartOfComposite": false
                },
                {
                    "name": "",
                    "id": "adcb7341-8cd5-4a54-92b8-aad109f7f836",
                    "path": "<Gamepad>/leftStick",
                    "interactions": "",
                    "processors": "",
                    "groups": "GamePad",
                    "action": "Mount Move",
                    "isComposite": false,
                    "isPartOfComposite": false
                },
                {
                    "name": "WASD",
                    "id": "4a7d7e95-5178-4a42-ac7e-aff3d8cb48a5",
                    "path": "2DVector(mode=1)",
                    "interactions": "",
                    "processors": "",
                    "groups": "",
                    "action": "Mount Move",
                    "isComposite": true,
                    "isPartOfComposite": false
                },
                {
                    "name": "up",
                    "id": "3746beeb-d831-4190-9f07-cc1fc6cff0ab",
                    "path": "<Keyboard>/w",
                    "interactions": "",
                    "processors": "",
                    "groups": "Keyboard and Mouse",
                    "action": "Mount Move",
                    "isComposite": false,
                    "isPartOfComposite": true
                },
                {
                    "name": "down",
                    "id": "66784c34-bd14-4cb5-b645-8b85ca2f346d",
                    "path": "<Keyboard>/s",
                    "interactions": "",
                    "processors": "",
                    "groups": "Keyboard and Mouse",
                    "action": "Mount Move",
                    "isComposite": false,
                    "isPartOfComposite": true
                },
                {
                    "name": "left",
                    "id": "d1603373-4560-4f95-9f80-01c6551e56a1",
                    "path": "<Keyboard>/a",
                    "interactions": "",
                    "processors": "",
                    "groups": "Keyboard and Mouse",
                    "action": "Mount Move",
                    "isComposite": false,
                    "isPartOfComposite": true
                },
                {
                    "name": "right",
                    "id": "76a2c5f5-69a6-4720-8bfd-53c60c7622a6",
                    "path": "<Keyboard>/d",
                    "interactions": "",
                    "processors": "",
                    "groups": "Keyboard and Mouse",
                    "action": "Mount Move",
                    "isComposite": false,
                    "isPartOfComposite": true
                },
                {
                    "name": "UD Keyboard",
                    "id": "3c2c193b-5cde-465f-a378-0fa8a9f30c66",
                    "path": "1DAxis(whichSideWins=1)",
                    "interactions": "",
                    "processors": "",
                    "groups": "",
                    "action": "Mount UpDown",
                    "isComposite": true,
                    "isPartOfComposite": false
                },
                {
                    "name": "positive",
                    "id": "319153af-2a71-48ee-aecb-4d1f3d747162",
                    "path": "<Keyboard>/space",
                    "interactions": "",
                    "processors": "",
                    "groups": "Keyboard and Mouse",
                    "action": "Mount UpDown",
                    "isComposite": false,
                    "isPartOfComposite": true
                },
                {
                    "name": "negative",
                    "id": "6e568889-8542-4e83-a533-96d3aece4159",
                    "path": "<Keyboard>/c",
                    "interactions": "",
                    "processors": "",
                    "groups": "Keyboard and Mouse",
                    "action": "Mount UpDown",
                    "isComposite": false,
                    "isPartOfComposite": true
                },
                {
                    "name": "UD GamePad",
                    "id": "5fbc9fc1-8219-4880-8641-bb09782b6f11",
                    "path": "1DAxis",
                    "interactions": "",
                    "processors": "",
                    "groups": "",
                    "action": "Mount UpDown",
                    "isComposite": true,
                    "isPartOfComposite": false
                },
                {
                    "name": "positive",
                    "id": "857ed29d-df1f-4195-b906-1b74118fd298",
                    "path": "<Gamepad>/leftShoulder",
                    "interactions": "",
                    "processors": "",
                    "groups": "GamePad",
                    "action": "Mount UpDown",
                    "isComposite": false,
                    "isPartOfComposite": true
                },
                {
                    "name": "negative",
                    "id": "1c1ca7be-48a5-4828-b08c-e2299848f532",
                    "path": "<Gamepad>/rightShoulder",
                    "interactions": "",
                    "processors": "",
                    "groups": "GamePad",
                    "action": "Mount UpDown",
                    "isComposite": false,
                    "isPartOfComposite": true
                },
                {
                    "name": "",
                    "id": "9a62bbd6-17a7-4ff3-b5fa-f9bd20239c55",
                    "path": "<Gamepad>/rightStick",
                    "interactions": "",
                    "processors": "",
                    "groups": "GamePad",
                    "action": "Look",
                    "isComposite": false,
                    "isPartOfComposite": false
                },
                {
                    "name": "",
                    "id": "770142cf-10e2-43d2-ba11-1052556122b8",
                    "path": "<Pointer>/delta",
                    "interactions": "",
                    "processors": "",
                    "groups": "Keyboard and Mouse",
                    "action": "Look",
                    "isComposite": false,
                    "isPartOfComposite": false
                },
                {
                    "name": "",
                    "id": "b8940255-0873-45a7-aafc-32df49aee4be",
                    "path": "<Mouse>/rightButton",
                    "interactions": "",
                    "processors": "",
                    "groups": "Keyboard and Mouse",
                    "action": "Aim",
                    "isComposite": false,
                    "isPartOfComposite": false
                },
                {
                    "name": "",
                    "id": "d53b7091-9a4d-4e45-a914-0f5a2c5adfb0",
                    "path": "<Gamepad>/leftTrigger",
                    "interactions": "",
                    "processors": "",
                    "groups": "GamePad",
                    "action": "Aim",
                    "isComposite": false,
                    "isPartOfComposite": false
                },
                {
                    "name": "",
                    "id": "dd71af56-d862-462a-b533-d741a24afb33",
                    "path": "<Mouse>/leftButton",
                    "interactions": "",
                    "processors": "",
                    "groups": "Keyboard and Mouse",
                    "action": "Attack1",
                    "isComposite": false,
                    "isPartOfComposite": false
                },
                {
                    "name": "",
                    "id": "c8efdb0c-fc5a-4d14-89a9-df9d560328a3",
                    "path": "<Keyboard>/3",
                    "interactions": "",
                    "processors": "",
                    "groups": "Keyboard and Mouse",
                    "action": "Inventory 1",
                    "isComposite": false,
                    "isPartOfComposite": false
                },
                {
                    "name": "",
                    "id": "bde61a57-0e6d-425d-b801-64fa391c6491",
                    "path": "<Gamepad>/dpad/left",
                    "interactions": "",
                    "processors": "",
                    "groups": "GamePad",
                    "action": "Inventory 1",
                    "isComposite": false,
                    "isPartOfComposite": false
                },
                {
                    "name": "",
                    "id": "5d7125e0-a162-40c7-87ca-c1f0fcff6e2a",
                    "path": "<Keyboard>/4",
                    "interactions": "",
                    "processors": "",
                    "groups": "Keyboard and Mouse",
                    "action": "Inventory 2",
                    "isComposite": false,
                    "isPartOfComposite": false
                },
                {
                    "name": "",
                    "id": "d7bf3efd-4a13-476f-b32d-3f05450e1f20",
                    "path": "<Gamepad>/dpad/up",
                    "interactions": "",
                    "processors": "",
                    "groups": "GamePad",
                    "action": "Inventory 2",
                    "isComposite": false,
                    "isPartOfComposite": false
                },
                {
                    "name": "",
                    "id": "1427475c-0642-4953-858d-be15282f5c10",
                    "path": "<Keyboard>/5",
                    "interactions": "",
                    "processors": "",
                    "groups": "Keyboard and Mouse",
                    "action": "Inventory 3",
                    "isComposite": false,
                    "isPartOfComposite": false
                },
                {
                    "name": "",
                    "id": "d8652528-8ee3-49de-9406-b8f06870d971",
                    "path": "<Gamepad>/dpad/right",
                    "interactions": "",
                    "processors": "",
                    "groups": "GamePad",
                    "action": "Inventory 3",
                    "isComposite": false,
                    "isPartOfComposite": false
                },
                {
                    "name": "",
                    "id": "9686b53e-dea5-40d8-91c6-d9486add5f53",
                    "path": "<Keyboard>/6",
                    "interactions": "",
                    "processors": "",
                    "groups": "Keyboard and Mouse",
                    "action": "Inventory 4",
                    "isComposite": false,
                    "isPartOfComposite": false
                },
                {
                    "name": "",
                    "id": "639497ae-74c9-45f2-b203-e5d80a094430",
                    "path": "<Gamepad>/dpad/down",
                    "interactions": "",
                    "processors": "",
                    "groups": "GamePad",
                    "action": "Inventory 4",
                    "isComposite": false,
                    "isPartOfComposite": false
                },
                {
                    "name": "",
                    "id": "0aa297cd-4957-473f-aa6d-5aeafa3a1fe9",
                    "path": "<Keyboard>/r",
                    "interactions": "",
                    "processors": "",
                    "groups": "Keyboard and Mouse",
                    "action": "Reload",
                    "isComposite": false,
                    "isPartOfComposite": false
                },
                {
                    "name": "",
                    "id": "07ff7465-b1ad-4b67-bdbd-3f0024f5b5f6",
                    "path": "<Gamepad>/dpad/down",
                    "interactions": "",
                    "processors": "",
                    "groups": "GamePad",
                    "action": "Reload",
                    "isComposite": false,
                    "isPartOfComposite": false
                },
                {
                    "name": "",
                    "id": "26e79103-a739-4bbd-bdaf-db18cf69234c",
                    "path": "<Keyboard>/space",
                    "interactions": "",
                    "processors": "",
                    "groups": "Keyboard and Mouse",
                    "action": "Mount Jump",
                    "isComposite": false,
                    "isPartOfComposite": false
                },
                {
                    "name": "",
                    "id": "7d13a926-0fe5-48bc-92d7-35b30a212cce",
                    "path": "<Gamepad>/buttonEast",
                    "interactions": "",
                    "processors": "",
                    "groups": "GamePad",
                    "action": "Mount Jump",
                    "isComposite": false,
                    "isPartOfComposite": false
                },
                {
                    "name": "",
                    "id": "1fd98aa6-08df-4a18-acbf-44760f0de43d",
                    "path": "<Gamepad>/buttonNorth",
                    "interactions": "",
                    "processors": "",
                    "groups": "GamePad",
                    "action": "Mount Interact",
                    "isComposite": false,
                    "isPartOfComposite": false
                },
                {
                    "name": "",
                    "id": "acb96297-69fb-4f62-b493-8d9fa8f0f9c7",
                    "path": "<Keyboard>/e",
                    "interactions": "",
                    "processors": "",
                    "groups": "Keyboard and Mouse",
                    "action": "Mount Interact",
                    "isComposite": false,
                    "isPartOfComposite": false
                },
                {
                    "name": "",
                    "id": "05f15a42-a2b6-430e-9198-43fba5806060",
                    "path": "<Gamepad>/leftStickPress",
                    "interactions": "",
                    "processors": "",
                    "groups": "GamePad",
                    "action": "Mount Sprint",
                    "isComposite": false,
                    "isPartOfComposite": false
                },
                {
                    "name": "",
                    "id": "8ee71b45-95af-49f3-88aa-9b4a913eb217",
                    "path": "<Keyboard>/shift",
                    "interactions": "",
                    "processors": "",
                    "groups": "Keyboard and Mouse",
                    "action": "Mount Sprint",
                    "isComposite": false,
                    "isPartOfComposite": false
                },
                {
                    "name": "",
                    "id": "c156f9e4-cf05-4e1a-a8ec-69cc367d3a5a",
                    "path": "<Keyboard>/escape",
                    "interactions": "MultiTap(tapTime=0.2,tapDelay=0.4,tapCount=3,pressPoint=0.5)",
                    "processors": "",
                    "groups": "Keyboard and Mouse",
                    "action": "Pause",
                    "isComposite": false,
                    "isPartOfComposite": false
                },
                {
                    "name": "",
                    "id": "f22994aa-b090-4b0c-a3d8-16e0eb8e4437",
                    "path": "<Keyboard>/tab",
                    "interactions": "",
                    "processors": "",
                    "groups": "Keyboard and Mouse",
                    "action": "Mount Strafe",
                    "isComposite": false,
                    "isPartOfComposite": false
                },
                {
                    "name": "",
                    "id": "0ff3c94a-ba7e-4967-b039-0e25f2f5decb",
                    "path": "<Gamepad>/rightStickPress",
                    "interactions": "",
                    "processors": "",
                    "groups": "GamePad",
                    "action": "Mount Strafe",
                    "isComposite": false,
                    "isPartOfComposite": false
                },
                {
                    "name": "",
                    "id": "0af62fef-e772-4294-95dc-e5a6295e739a",
                    "path": "<Keyboard>/2",
                    "interactions": "",
                    "processors": "",
                    "groups": "Keyboard and Mouse",
                    "action": "SpeedUp",
                    "isComposite": false,
                    "isPartOfComposite": false
                },
                {
                    "name": "",
                    "id": "d623c83b-0ede-478b-b41a-992673af3f05",
                    "path": "<Gamepad>/rightShoulder",
                    "interactions": "",
                    "processors": "",
                    "groups": "GamePad",
                    "action": "SpeedUp",
                    "isComposite": false,
                    "isPartOfComposite": false
                },
                {
                    "name": "",
                    "id": "b5045bfb-ecf0-408f-a858-b0fdcf8c4455",
                    "path": "<Keyboard>/1",
                    "interactions": "",
                    "processors": "",
                    "groups": "Keyboard and Mouse",
                    "action": "SpeedDown",
                    "isComposite": false,
                    "isPartOfComposite": false
                },
                {
                    "name": "",
                    "id": "4e6d9b84-f6f3-4062-8182-df4b2b3555ed",
                    "path": "<Gamepad>/leftShoulder",
                    "interactions": "",
                    "processors": "",
                    "groups": "GamePad",
                    "action": "SpeedDown",
                    "isComposite": false,
                    "isPartOfComposite": false
                },
                {
                    "name": "",
                    "id": "6882fcda-102f-40f5-8882-090d5373f182",
                    "path": "<Gamepad>/start",
                    "interactions": "",
                    "processors": "",
                    "groups": "GamePad",
                    "action": "Pause",
                    "isComposite": false,
                    "isPartOfComposite": false
                },
                {
                    "name": "",
                    "id": "c6137fbd-d365-4011-a9e0-04b267e0325b",
                    "path": "<Gamepad>/rightTrigger",
                    "interactions": "",
                    "processors": "",
                    "groups": "GamePad",
                    "action": "Attack1",
                    "isComposite": false,
                    "isPartOfComposite": false
                }
            ]
        },
        {
            "name": "UI",
            "id": "4d5dcf46-da15-4b0d-9e2d-8e07d5f99fdf",
            "actions": [
                {
                    "name": "MoveUI",
                    "type": "Value",
                    "id": "a6670a46-ff88-474a-a8f8-f88df87b929d",
                    "expectedControlType": "Vector2",
                    "processors": "",
                    "interactions": ""
                },
                {
                    "name": "Commit",
                    "type": "Button",
                    "id": "d0855fed-276c-4338-bde0-9685a5b8ef43",
                    "expectedControlType": "Button",
                    "processors": "",
                    "interactions": ""
                },
                {
                    "name": "Unpause",
                    "type": "Button",
                    "id": "777fc3fe-177b-4c00-b49e-7184c9c981de",
                    "expectedControlType": "Button",
                    "processors": "",
                    "interactions": ""
                }
            ],
            "bindings": [
                {
                    "name": "",
                    "id": "23843b86-197d-49f0-8723-526df16085a1",
                    "path": "<Gamepad>/leftStick",
                    "interactions": "",
                    "processors": "",
                    "groups": "GamePad",
                    "action": "MoveUI",
                    "isComposite": false,
                    "isPartOfComposite": false
                },
                {
                    "name": "WASD",
                    "id": "abb8d0d2-69a4-4f62-a4d1-1abd1f2af067",
                    "path": "Dpad(mode=1)",
                    "interactions": "",
                    "processors": "",
                    "groups": "",
                    "action": "MoveUI",
                    "isComposite": true,
                    "isPartOfComposite": false
                },
                {
                    "name": "up",
                    "id": "34d91bcf-5b18-4588-a0e1-a26fabb3f01d",
                    "path": "<Keyboard>/w",
                    "interactions": "",
                    "processors": "",
                    "groups": "Keyboard and Mouse",
                    "action": "MoveUI",
                    "isComposite": false,
                    "isPartOfComposite": true
                },
                {
                    "name": "down",
                    "id": "8dac486a-106a-44af-a895-886d9c72628b",
                    "path": "<Keyboard>/s",
                    "interactions": "",
                    "processors": "",
                    "groups": "Keyboard and Mouse",
                    "action": "MoveUI",
                    "isComposite": false,
                    "isPartOfComposite": true
                },
                {
                    "name": "left",
                    "id": "9a31ebfd-9a44-4f77-a564-f2e292ed1f69",
                    "path": "<Keyboard>/a",
                    "interactions": "",
                    "processors": "",
                    "groups": "Keyboard and Mouse",
                    "action": "MoveUI",
                    "isComposite": false,
                    "isPartOfComposite": true
                },
                {
                    "name": "right",
                    "id": "e18153f1-ac80-4ea4-bd55-ab0672dab0d8",
                    "path": "<Keyboard>/d",
                    "interactions": "",
                    "processors": "",
                    "groups": "Keyboard and Mouse",
                    "action": "MoveUI",
                    "isComposite": false,
                    "isPartOfComposite": true
                },
                {
                    "name": "",
                    "id": "6f81f061-d06e-478f-8c97-71a808417544",
                    "path": "<Keyboard>/enter",
                    "interactions": "",
                    "processors": "",
                    "groups": "Keyboard and Mouse",
                    "action": "Commit",
                    "isComposite": false,
                    "isPartOfComposite": false
                },
                {
                    "name": "",
                    "id": "54bdb0cd-d245-414f-aba2-99e6ca6c5ad5",
                    "path": "<Gamepad>/buttonSouth",
                    "interactions": "",
                    "processors": "",
                    "groups": "GamePad",
                    "action": "Commit",
                    "isComposite": false,
                    "isPartOfComposite": false
                },
                {
                    "name": "",
                    "id": "cfb75d6b-f794-49d0-a15b-7421edc690ee",
                    "path": "<Gamepad>/start",
                    "interactions": "",
                    "processors": "",
                    "groups": "GamePad",
                    "action": "Unpause",
                    "isComposite": false,
                    "isPartOfComposite": false
                },
                {
                    "name": "",
                    "id": "c36770ae-3ed7-4fe4-87cf-457306092dbe",
                    "path": "<Keyboard>/escape",
                    "interactions": "MultiTap(tapTime=0.2,tapDelay=0.4,tapCount=3,pressPoint=0.5)",
                    "processors": "",
                    "groups": "Keyboard and Mouse",
                    "action": "Unpause",
                    "isComposite": false,
                    "isPartOfComposite": false
                }
            ]
        }
    ],
    "controlSchemes": [
        {
            "name": "Keyboard and Mouse",
            "bindingGroup": "Keyboard and Mouse",
            "devices": [
                {
                    "devicePath": "<Keyboard>",
                    "isOptional": false,
                    "isOR": false
                },
                {
                    "devicePath": "<Mouse>",
                    "isOptional": false,
                    "isOR": false
                }
            ]
        },
        {
            "name": "GamePad",
            "bindingGroup": "GamePad",
            "devices": [
                {
                    "devicePath": "<Gamepad>",
                    "isOptional": false,
                    "isOR": false
                }
            ]
        }
    ]
}